{
  "key": "test",
  "name": "Hello!",
  "description": "My very first HipChat add-on",
  "vendor": {
    "name": "Angry Nerds",
    "url": "https://www.hipchat.com"
  },
  "links": {
    "self": "{{localBaseUrl}}/atlassian-connect.json",
    "homepage": "{{localBaseUrl}}"
  },
  "capabilities": {
    "hipchatApiConsumer": {
      "scopes": [
        "send_notification",
        "view_room"
      ]
    },
    "installable": {
      "callbackUrl": "{{localBaseUrl}}/installable"
    },
    "configurable": {
      "url": "{{localBaseUrl}}/config"
    },
    "webhook": {
      "url": "{{localBaseUrl}}/webhook",
      "pattern": "^/hello",
      "event": "room_message",
      "name": "Hello!",
      "authentication": "jwt"
    },
    "glance": [
      {
        "name": {
          "value": "Hello!"
        },
        "queryUrl": "{{localBaseUrl}}/glance",
        "key": "sample.glance",
        "target": "sample.sidebar",
        "icon": {
          "url": "{{localBaseUrl}}/img/logo.png",
          "url@2x": "{{localBaseUrl}}/img/logo.png"
        }
      }
    ],
    "webPanel": [
      {
        "key": "sample.sidebar",
        "name": {
          "value": "Hello Sidebar!"
        },
        "location": "hipchat.sidebar.right",
        "url": "{{localBaseUrl}}/sidebar"
      }
    ],
    "dialog": [
      {
        "key": "sample.dialog",
        "title": {
          "value": "Hello Dialog!"
        },
        "url": "{{localBaseUrl}}/dialog",
        "options": {
          "style": "normal",
          "primaryAction": {
            "name": {
              "value": "Say Hello!"
            },
            "key": "sample.dialog.action",
            "enabled": true
          },
          "secondaryActions": [],
          "size": {
            "width": "400px",
            "height": "200px"
          }
        }
      }
    ]
  }
}
